<?xml version="1.0"?>

<robot name="quadrotor" xmlns:xacro="http://www.ros.org/wiki/xacro">
    <xacro:include filename="$(find mbzirc_simulation)/urdf/quadrotor_with_cam.urdf.xacro" />
    <xacro:include filename="$(find hector_quadrotor_gazebo)/urdf/quadrotor_plugins.gazebo.xacro" />
</robot>

